<mxfile host="app.diagrams.net" modified="2023-07-25T20:00:11.033Z" agent="Mozilla/5.0 (Windows NT 10.0; Win64; x64) AppleWebKit/537.36 (KHTML, like Gecko) Chrome/114.0.0.0 Safari/537.36" etag="VFo2AwskL15nKD4m39jI" version="21.6.5" type="gitlab">
  <diagram name="Page-1" id="KhxcFQtEqeyOC4jQi7Ly">
    <mxGraphModel dx="2045" dy="1737" grid="1" gridSize="10" guides="1" tooltips="1" connect="1" arrows="1" fold="1" page="1" pageScale="1" pageWidth="850" pageHeight="1100" math="0" shadow="0">
      <root>
        <mxCell id="0" />
        <mxCell id="1" parent="0" />
        <mxCell id="a-Das0iFKzv1TxdE-6_U-138" value="" style="endArrow=none;dashed=1;html=1;rounded=0;labelBackgroundColor=default;strokeColor=#6c8ebf;fontFamily=Helvetica;fontSize=11;fontColor=default;shape=connector;fillColor=#dae8fc;" edge="1" parent="1" source="a-Das0iFKzv1TxdE-6_U-145" target="a-Das0iFKzv1TxdE-6_U-19">
          <mxGeometry width="50" height="50" relative="1" as="geometry">
            <mxPoint x="848" y="600" as="sourcePoint" />
            <mxPoint x="808" y="400" as="targetPoint" />
          </mxGeometry>
        </mxCell>
        <mxCell id="a-Das0iFKzv1TxdE-6_U-136" value="" style="endArrow=none;dashed=1;html=1;rounded=0;labelBackgroundColor=default;strokeColor=#6c8ebf;fontFamily=Helvetica;fontSize=11;fontColor=default;shape=connector;fillColor=#dae8fc;movable=1;resizable=1;rotatable=1;deletable=1;editable=1;locked=0;connectable=1;" edge="1" parent="1" source="a-Das0iFKzv1TxdE-6_U-140" target="a-Das0iFKzv1TxdE-6_U-12">
          <mxGeometry width="50" height="50" relative="1" as="geometry">
            <mxPoint x="3" y="600" as="sourcePoint" />
            <mxPoint x="46.15384615384619" y="430" as="targetPoint" />
            <Array as="points" />
          </mxGeometry>
        </mxCell>
        <mxCell id="a-Das0iFKzv1TxdE-6_U-114" value="" style="endArrow=none;dashed=1;html=1;labelBackgroundColor=default;strokeColor=#6c8ebf;fontFamily=Helvetica;fontSize=11;fontColor=default;shape=connector;fillColor=#dae8fc;rounded=0;" edge="1" parent="1" source="a-Das0iFKzv1TxdE-6_U-86" target="a-Das0iFKzv1TxdE-6_U-6">
          <mxGeometry width="50" height="50" relative="1" as="geometry">
            <mxPoint x="254" y="580" as="sourcePoint" />
            <mxPoint x="436" y="190" as="targetPoint" />
          </mxGeometry>
        </mxCell>
        <mxCell id="a-Das0iFKzv1TxdE-6_U-100" value="" style="endArrow=none;dashed=1;html=1;rounded=0;labelBackgroundColor=default;strokeColor=#6c8ebf;fontFamily=Helvetica;fontSize=11;fontColor=default;shape=connector;fillColor=#dae8fc;" edge="1" parent="1" source="a-Das0iFKzv1TxdE-6_U-13" target="a-Das0iFKzv1TxdE-6_U-2">
          <mxGeometry width="50" height="50" relative="1" as="geometry">
            <mxPoint x="420" y="340" as="sourcePoint" />
            <mxPoint x="470" y="290" as="targetPoint" />
          </mxGeometry>
        </mxCell>
        <mxCell id="a-Das0iFKzv1TxdE-6_U-101" value="" style="endArrow=none;dashed=1;html=1;rounded=0;labelBackgroundColor=default;strokeColor=#6c8ebf;fontFamily=Helvetica;fontSize=11;fontColor=default;shape=connector;fillColor=#dae8fc;" edge="1" parent="1" source="a-Das0iFKzv1TxdE-6_U-14" target="a-Das0iFKzv1TxdE-6_U-4">
          <mxGeometry width="50" height="50" relative="1" as="geometry">
            <mxPoint x="260" y="328.38" as="sourcePoint" />
            <mxPoint x="670" y="240.00222222222214" as="targetPoint" />
          </mxGeometry>
        </mxCell>
        <mxCell id="a-Das0iFKzv1TxdE-6_U-103" value="" style="endArrow=none;dashed=1;html=1;rounded=0;labelBackgroundColor=default;strokeColor=#6c8ebf;fontFamily=Helvetica;fontSize=11;fontColor=default;shape=connector;fillColor=#dae8fc;" edge="1" parent="1" source="a-Das0iFKzv1TxdE-6_U-15" target="a-Das0iFKzv1TxdE-6_U-6">
          <mxGeometry width="50" height="50" relative="1" as="geometry">
            <mxPoint x="420" y="340" as="sourcePoint" />
            <mxPoint x="470" y="290" as="targetPoint" />
          </mxGeometry>
        </mxCell>
        <mxCell id="a-Das0iFKzv1TxdE-6_U-104" value="" style="endArrow=none;dashed=1;html=1;rounded=0;labelBackgroundColor=default;strokeColor=#6c8ebf;fontFamily=Helvetica;fontSize=11;fontColor=default;shape=connector;fillColor=#dae8fc;" edge="1" parent="1" source="a-Das0iFKzv1TxdE-6_U-21" target="a-Das0iFKzv1TxdE-6_U-4">
          <mxGeometry width="50" height="50" relative="1" as="geometry">
            <mxPoint x="285" y="257" as="sourcePoint" />
            <mxPoint x="505" y="183" as="targetPoint" />
          </mxGeometry>
        </mxCell>
        <mxCell id="a-Das0iFKzv1TxdE-6_U-105" value="" style="endArrow=none;dashed=1;html=1;rounded=0;labelBackgroundColor=default;strokeColor=#6c8ebf;fontFamily=Helvetica;fontSize=11;fontColor=default;shape=connector;fillColor=#dae8fc;" edge="1" parent="1" source="a-Das0iFKzv1TxdE-6_U-22" target="a-Das0iFKzv1TxdE-6_U-6">
          <mxGeometry width="50" height="50" relative="1" as="geometry">
            <mxPoint x="325" y="334" as="sourcePoint" />
            <mxPoint x="545" y="260" as="targetPoint" />
          </mxGeometry>
        </mxCell>
        <mxCell id="a-Das0iFKzv1TxdE-6_U-106" value="" style="endArrow=none;dashed=1;html=1;rounded=0;labelBackgroundColor=default;strokeColor=#6c8ebf;fontFamily=Helvetica;fontSize=11;fontColor=default;shape=connector;fillColor=#dae8fc;" edge="1" parent="1" source="a-Das0iFKzv1TxdE-6_U-20" target="a-Das0iFKzv1TxdE-6_U-2">
          <mxGeometry width="50" height="50" relative="1" as="geometry">
            <mxPoint x="295" y="354" as="sourcePoint" />
            <mxPoint x="515" y="280" as="targetPoint" />
          </mxGeometry>
        </mxCell>
        <mxCell id="a-Das0iFKzv1TxdE-6_U-107" value="" style="endArrow=none;dashed=1;html=1;rounded=0;labelBackgroundColor=default;strokeColor=#6c8ebf;fontFamily=Helvetica;fontSize=11;fontColor=default;shape=connector;fillColor=#dae8fc;" edge="1" parent="1" source="a-Das0iFKzv1TxdE-6_U-76" target="a-Das0iFKzv1TxdE-6_U-2">
          <mxGeometry width="50" height="50" relative="1" as="geometry">
            <mxPoint x="295" y="374" as="sourcePoint" />
            <mxPoint x="515" y="300" as="targetPoint" />
          </mxGeometry>
        </mxCell>
        <mxCell id="a-Das0iFKzv1TxdE-6_U-108" value="" style="endArrow=none;dashed=1;html=1;rounded=0;labelBackgroundColor=default;strokeColor=#6c8ebf;fontFamily=Helvetica;fontSize=11;fontColor=default;shape=connector;fillColor=#dae8fc;" edge="1" parent="1" source="a-Das0iFKzv1TxdE-6_U-77" target="a-Das0iFKzv1TxdE-6_U-4">
          <mxGeometry width="50" height="50" relative="1" as="geometry">
            <mxPoint x="434.64" y="590" as="sourcePoint" />
            <mxPoint x="434.64" y="250" as="targetPoint" />
          </mxGeometry>
        </mxCell>
        <mxCell id="a-Das0iFKzv1TxdE-6_U-109" value="" style="endArrow=none;dashed=1;html=1;rounded=0;labelBackgroundColor=default;strokeColor=#6c8ebf;fontFamily=Helvetica;fontSize=11;fontColor=default;shape=connector;fillColor=#dae8fc;" edge="1" parent="1" source="a-Das0iFKzv1TxdE-6_U-72" target="a-Das0iFKzv1TxdE-6_U-2">
          <mxGeometry width="50" height="50" relative="1" as="geometry">
            <mxPoint x="388" y="510" as="sourcePoint" />
            <mxPoint x="348" y="190" as="targetPoint" />
          </mxGeometry>
        </mxCell>
        <mxCell id="a-Das0iFKzv1TxdE-6_U-110" value="" style="endArrow=none;dashed=1;html=1;rounded=0;labelBackgroundColor=default;strokeColor=#6c8ebf;fontFamily=Helvetica;fontSize=11;fontColor=default;shape=connector;fillColor=#dae8fc;" edge="1" parent="1" source="a-Das0iFKzv1TxdE-6_U-84" target="a-Das0iFKzv1TxdE-6_U-2">
          <mxGeometry width="50" height="50" relative="1" as="geometry">
            <mxPoint x="154" y="580" as="sourcePoint" />
            <mxPoint x="336" y="190" as="targetPoint" />
          </mxGeometry>
        </mxCell>
        <mxCell id="a-Das0iFKzv1TxdE-6_U-111" value="" style="endArrow=none;dashed=1;html=1;rounded=0;labelBackgroundColor=default;strokeColor=#6c8ebf;fontFamily=Helvetica;fontSize=11;fontColor=default;shape=connector;fillColor=#dae8fc;" edge="1" parent="1" source="a-Das0iFKzv1TxdE-6_U-85" target="a-Das0iFKzv1TxdE-6_U-4">
          <mxGeometry width="50" height="50" relative="1" as="geometry">
            <mxPoint x="503" y="510" as="sourcePoint" />
            <mxPoint x="543" y="190" as="targetPoint" />
          </mxGeometry>
        </mxCell>
        <mxCell id="a-Das0iFKzv1TxdE-6_U-112" value="" style="endArrow=none;dashed=1;html=1;rounded=0;labelBackgroundColor=default;strokeColor=#6c8ebf;fontFamily=Helvetica;fontSize=11;fontColor=default;shape=connector;fillColor=#dae8fc;" edge="1" parent="1" source="a-Das0iFKzv1TxdE-6_U-73" target="a-Das0iFKzv1TxdE-6_U-4">
          <mxGeometry width="50" height="50" relative="1" as="geometry">
            <mxPoint x="503" y="510" as="sourcePoint" />
            <mxPoint x="543" y="190" as="targetPoint" />
          </mxGeometry>
        </mxCell>
        <mxCell id="a-Das0iFKzv1TxdE-6_U-113" value="" style="endArrow=none;dashed=1;html=1;rounded=0;labelBackgroundColor=default;strokeColor=#6c8ebf;fontFamily=Helvetica;fontSize=11;fontColor=default;shape=connector;fillColor=#dae8fc;" edge="1" parent="1" source="a-Das0iFKzv1TxdE-6_U-74" target="a-Das0iFKzv1TxdE-6_U-6">
          <mxGeometry width="50" height="50" relative="1" as="geometry">
            <mxPoint x="354" y="580" as="sourcePoint" />
            <mxPoint x="536" y="190" as="targetPoint" />
          </mxGeometry>
        </mxCell>
        <mxCell id="a-Das0iFKzv1TxdE-6_U-128" value="" style="endArrow=none;dashed=1;html=1;rounded=0;strokeColor=#6c8ebf;shape=connector;fillColor=#dae8fc;ignoreEdge=0;flowAnimation=0;arcSize=20;" edge="1" parent="1" source="a-Das0iFKzv1TxdE-6_U-119" target="a-Das0iFKzv1TxdE-6_U-2">
          <mxGeometry width="50" height="50" relative="1" as="geometry">
            <mxPoint x="260" y="820" as="sourcePoint" />
            <mxPoint x="438" y="510" as="targetPoint" />
          </mxGeometry>
        </mxCell>
        <mxCell id="a-Das0iFKzv1TxdE-6_U-129" value="" style="endArrow=none;dashed=1;html=1;rounded=0;labelBackgroundColor=default;strokeColor=#6c8ebf;fontFamily=Helvetica;fontSize=11;fontColor=default;shape=connector;fillColor=#dae8fc;" edge="1" parent="1" source="a-Das0iFKzv1TxdE-6_U-120" target="a-Das0iFKzv1TxdE-6_U-4">
          <mxGeometry width="50" height="50" relative="1" as="geometry">
            <mxPoint x="-73" y="670" as="sourcePoint" />
            <mxPoint x="328" y="190" as="targetPoint" />
          </mxGeometry>
        </mxCell>
        <mxCell id="a-Das0iFKzv1TxdE-6_U-130" value="" style="endArrow=none;dashed=1;html=1;rounded=0;labelBackgroundColor=default;strokeColor=#6c8ebf;fontFamily=Helvetica;fontSize=11;fontColor=default;shape=connector;fillColor=#dae8fc;" edge="1" parent="1" source="a-Das0iFKzv1TxdE-6_U-126" target="a-Das0iFKzv1TxdE-6_U-4">
          <mxGeometry width="50" height="50" relative="1" as="geometry">
            <mxPoint x="127" y="670" as="sourcePoint" />
            <mxPoint x="528" y="190" as="targetPoint" />
          </mxGeometry>
        </mxCell>
        <mxCell id="a-Das0iFKzv1TxdE-6_U-131" value="" style="endArrow=none;dashed=1;html=1;rounded=0;labelBackgroundColor=default;strokeColor=#6c8ebf;fontFamily=Helvetica;fontSize=11;fontColor=default;shape=connector;fillColor=#dae8fc;" edge="1" parent="1" source="a-Das0iFKzv1TxdE-6_U-125" target="a-Das0iFKzv1TxdE-6_U-2">
          <mxGeometry width="50" height="50" relative="1" as="geometry">
            <mxPoint x="127" y="670" as="sourcePoint" />
            <mxPoint x="528" y="190" as="targetPoint" />
          </mxGeometry>
        </mxCell>
        <mxCell id="a-Das0iFKzv1TxdE-6_U-3" style="edgeStyle=orthogonalEdgeStyle;rounded=0;orthogonalLoop=1;jettySize=auto;html=1;exitX=0.5;exitY=1;exitDx=0;exitDy=0;" edge="1" parent="1" source="a-Das0iFKzv1TxdE-6_U-1" target="a-Das0iFKzv1TxdE-6_U-2">
          <mxGeometry relative="1" as="geometry" />
        </mxCell>
        <mxCell id="a-Das0iFKzv1TxdE-6_U-5" style="edgeStyle=orthogonalEdgeStyle;rounded=0;orthogonalLoop=1;jettySize=auto;html=1;exitX=0.5;exitY=1;exitDx=0;exitDy=0;entryX=0.5;entryY=0;entryDx=0;entryDy=0;" edge="1" parent="1" source="a-Das0iFKzv1TxdE-6_U-1" target="a-Das0iFKzv1TxdE-6_U-4">
          <mxGeometry relative="1" as="geometry" />
        </mxCell>
        <mxCell id="a-Das0iFKzv1TxdE-6_U-7" style="edgeStyle=orthogonalEdgeStyle;rounded=0;orthogonalLoop=1;jettySize=auto;html=1;exitX=0.5;exitY=1;exitDx=0;exitDy=0;entryX=0.5;entryY=0;entryDx=0;entryDy=0;" edge="1" parent="1" source="a-Das0iFKzv1TxdE-6_U-1" target="a-Das0iFKzv1TxdE-6_U-6">
          <mxGeometry relative="1" as="geometry" />
        </mxCell>
        <mxCell id="a-Das0iFKzv1TxdE-6_U-1" value="BASE" style="rounded=1;whiteSpace=wrap;html=1;fillColor=#f5f5f5;strokeColor=#666666;gradientColor=#b3b3b3;" vertex="1" parent="1">
          <mxGeometry x="375" y="80" width="120" height="20" as="geometry" />
        </mxCell>
        <mxCell id="a-Das0iFKzv1TxdE-6_U-2" value="1ArmL" style="rounded=1;whiteSpace=wrap;html=1;fillColor=#f8cecc;strokeColor=#b85450;" vertex="1" parent="1">
          <mxGeometry x="295" y="140" width="80" height="40" as="geometry" />
        </mxCell>
        <mxCell id="a-Das0iFKzv1TxdE-6_U-4" value="1ArmR" style="rounded=1;whiteSpace=wrap;html=1;fillColor=#f8cecc;strokeColor=#b85450;" vertex="1" parent="1">
          <mxGeometry x="495" y="140" width="80" height="40" as="geometry" />
        </mxCell>
        <mxCell id="a-Das0iFKzv1TxdE-6_U-6" value="NoArms" style="rounded=1;whiteSpace=wrap;html=1;fillColor=#d5e8d4;strokeColor=#82b366;" vertex="1" parent="1">
          <mxGeometry x="395" y="140" width="80" height="40" as="geometry" />
        </mxCell>
        <mxCell id="a-Das0iFKzv1TxdE-6_U-9" style="edgeStyle=orthogonalEdgeStyle;rounded=0;orthogonalLoop=1;jettySize=auto;html=1;exitX=0.5;exitY=1;exitDx=0;exitDy=0;" edge="1" parent="1" source="a-Das0iFKzv1TxdE-6_U-12" target="a-Das0iFKzv1TxdE-6_U-13">
          <mxGeometry relative="1" as="geometry" />
        </mxCell>
        <mxCell id="a-Das0iFKzv1TxdE-6_U-10" style="edgeStyle=orthogonalEdgeStyle;rounded=0;orthogonalLoop=1;jettySize=auto;html=1;exitX=0.5;exitY=1;exitDx=0;exitDy=0;entryX=0.5;entryY=0;entryDx=0;entryDy=0;" edge="1" parent="1" source="a-Das0iFKzv1TxdE-6_U-12" target="a-Das0iFKzv1TxdE-6_U-14">
          <mxGeometry relative="1" as="geometry" />
        </mxCell>
        <mxCell id="a-Das0iFKzv1TxdE-6_U-11" style="edgeStyle=orthogonalEdgeStyle;rounded=0;orthogonalLoop=1;jettySize=auto;html=1;exitX=0.5;exitY=1;exitDx=0;exitDy=0;entryX=0.5;entryY=0;entryDx=0;entryDy=0;" edge="1" parent="1" source="a-Das0iFKzv1TxdE-6_U-12" target="a-Das0iFKzv1TxdE-6_U-15">
          <mxGeometry relative="1" as="geometry" />
        </mxCell>
        <mxCell id="a-Das0iFKzv1TxdE-6_U-12" value="1LegL" style="rounded=1;whiteSpace=wrap;html=1;fillColor=#f8cecc;strokeColor=#b85450;" vertex="1" parent="1">
          <mxGeometry x="75" y="180" width="120" height="20" as="geometry" />
        </mxCell>
        <mxCell id="a-Das0iFKzv1TxdE-6_U-13" value="1ArmL" style="rounded=1;whiteSpace=wrap;html=1;fillColor=#f8cecc;strokeColor=#b85450;" vertex="1" parent="1">
          <mxGeometry x="-5" y="240" width="80" height="40" as="geometry" />
        </mxCell>
        <mxCell id="a-Das0iFKzv1TxdE-6_U-14" value="1ArmR" style="rounded=1;whiteSpace=wrap;html=1;fillColor=#f8cecc;strokeColor=#b85450;" vertex="1" parent="1">
          <mxGeometry x="195" y="240" width="80" height="40" as="geometry" />
        </mxCell>
        <mxCell id="a-Das0iFKzv1TxdE-6_U-134" value="" style="edgeStyle=orthogonalEdgeStyle;shape=connector;rounded=0;orthogonalLoop=1;jettySize=auto;html=1;labelBackgroundColor=default;strokeColor=default;fontFamily=Helvetica;fontSize=11;fontColor=default;endArrow=classic;" edge="1" parent="1" source="a-Das0iFKzv1TxdE-6_U-15" target="a-Das0iFKzv1TxdE-6_U-12">
          <mxGeometry relative="1" as="geometry" />
        </mxCell>
        <mxCell id="a-Das0iFKzv1TxdE-6_U-15" value="NoArms" style="rounded=1;whiteSpace=wrap;html=1;fillColor=#f8cecc;strokeColor=#b85450;" vertex="1" parent="1">
          <mxGeometry x="95" y="240" width="80" height="40" as="geometry" />
        </mxCell>
        <mxCell id="a-Das0iFKzv1TxdE-6_U-16" style="edgeStyle=orthogonalEdgeStyle;rounded=0;orthogonalLoop=1;jettySize=auto;html=1;exitX=0.5;exitY=1;exitDx=0;exitDy=0;" edge="1" parent="1" source="a-Das0iFKzv1TxdE-6_U-19" target="a-Das0iFKzv1TxdE-6_U-20">
          <mxGeometry relative="1" as="geometry" />
        </mxCell>
        <mxCell id="a-Das0iFKzv1TxdE-6_U-17" style="edgeStyle=orthogonalEdgeStyle;rounded=0;orthogonalLoop=1;jettySize=auto;html=1;exitX=0.5;exitY=1;exitDx=0;exitDy=0;entryX=0.5;entryY=0;entryDx=0;entryDy=0;" edge="1" parent="1" source="a-Das0iFKzv1TxdE-6_U-19" target="a-Das0iFKzv1TxdE-6_U-21">
          <mxGeometry relative="1" as="geometry" />
        </mxCell>
        <mxCell id="a-Das0iFKzv1TxdE-6_U-18" style="edgeStyle=orthogonalEdgeStyle;rounded=0;orthogonalLoop=1;jettySize=auto;html=1;exitX=0.5;exitY=1;exitDx=0;exitDy=0;entryX=0.5;entryY=0;entryDx=0;entryDy=0;" edge="1" parent="1" source="a-Das0iFKzv1TxdE-6_U-19" target="a-Das0iFKzv1TxdE-6_U-22">
          <mxGeometry relative="1" as="geometry" />
        </mxCell>
        <mxCell id="a-Das0iFKzv1TxdE-6_U-19" value="1LegR" style="rounded=1;whiteSpace=wrap;html=1;fillColor=#f8cecc;strokeColor=#b85450;" vertex="1" parent="1">
          <mxGeometry x="690" y="180" width="120" height="20" as="geometry" />
        </mxCell>
        <mxCell id="a-Das0iFKzv1TxdE-6_U-20" value="1ArmL" style="rounded=1;whiteSpace=wrap;html=1;fillColor=#f8cecc;strokeColor=#b85450;" vertex="1" parent="1">
          <mxGeometry x="610" y="240" width="80" height="40" as="geometry" />
        </mxCell>
        <mxCell id="a-Das0iFKzv1TxdE-6_U-21" value="1ArmR" style="rounded=1;whiteSpace=wrap;html=1;fillColor=#f8cecc;strokeColor=#b85450;" vertex="1" parent="1">
          <mxGeometry x="810" y="240" width="80" height="40" as="geometry" />
        </mxCell>
        <mxCell id="a-Das0iFKzv1TxdE-6_U-22" value="NoArms" style="rounded=1;whiteSpace=wrap;html=1;fillColor=#f8cecc;strokeColor=#b85450;" vertex="1" parent="1">
          <mxGeometry x="710" y="240" width="80" height="40" as="geometry" />
        </mxCell>
        <mxCell id="a-Das0iFKzv1TxdE-6_U-75" style="edgeStyle=orthogonalEdgeStyle;shape=connector;rounded=0;orthogonalLoop=1;jettySize=auto;html=1;exitX=0;exitY=0.5;exitDx=0;exitDy=0;entryX=0.5;entryY=0;entryDx=0;entryDy=0;labelBackgroundColor=default;strokeColor=default;fontFamily=Helvetica;fontSize=11;fontColor=default;endArrow=classic;" edge="1" parent="1" source="a-Das0iFKzv1TxdE-6_U-30" target="a-Das0iFKzv1TxdE-6_U-71">
          <mxGeometry relative="1" as="geometry" />
        </mxCell>
        <mxCell id="a-Das0iFKzv1TxdE-6_U-78" style="edgeStyle=orthogonalEdgeStyle;shape=connector;rounded=0;orthogonalLoop=1;jettySize=auto;html=1;exitX=0.5;exitY=1;exitDx=0;exitDy=0;labelBackgroundColor=default;strokeColor=default;fontFamily=Helvetica;fontSize=11;fontColor=default;endArrow=classic;" edge="1" parent="1" source="a-Das0iFKzv1TxdE-6_U-30" target="a-Das0iFKzv1TxdE-6_U-76">
          <mxGeometry relative="1" as="geometry" />
        </mxCell>
        <mxCell id="a-Das0iFKzv1TxdE-6_U-79" style="edgeStyle=orthogonalEdgeStyle;shape=connector;rounded=0;orthogonalLoop=1;jettySize=auto;html=1;exitX=0.5;exitY=1;exitDx=0;exitDy=0;labelBackgroundColor=default;strokeColor=default;fontFamily=Helvetica;fontSize=11;fontColor=default;endArrow=classic;" edge="1" parent="1" source="a-Das0iFKzv1TxdE-6_U-30" target="a-Das0iFKzv1TxdE-6_U-77">
          <mxGeometry relative="1" as="geometry" />
        </mxCell>
        <mxCell id="a-Das0iFKzv1TxdE-6_U-87" style="edgeStyle=orthogonalEdgeStyle;shape=connector;rounded=0;orthogonalLoop=1;jettySize=auto;html=1;exitX=1;exitY=0.5;exitDx=0;exitDy=0;labelBackgroundColor=default;strokeColor=default;fontFamily=Helvetica;fontSize=11;fontColor=default;endArrow=classic;" edge="1" parent="1" source="a-Das0iFKzv1TxdE-6_U-30" target="a-Das0iFKzv1TxdE-6_U-83">
          <mxGeometry relative="1" as="geometry" />
        </mxCell>
        <mxCell id="a-Das0iFKzv1TxdE-6_U-30" value="Wheelchair Manual&lt;br&gt;[No legs]" style="rounded=1;whiteSpace=wrap;html=1;fillColor=#f8cecc;strokeColor=#b85450;" vertex="1" parent="1">
          <mxGeometry x="375" y="330" width="120" height="60" as="geometry" />
        </mxCell>
        <mxCell id="a-Das0iFKzv1TxdE-6_U-68" style="edgeStyle=orthogonalEdgeStyle;rounded=0;orthogonalLoop=1;jettySize=auto;html=1;exitX=0.5;exitY=1;exitDx=0;exitDy=0;" edge="1" parent="1" source="a-Das0iFKzv1TxdE-6_U-71" target="a-Das0iFKzv1TxdE-6_U-72">
          <mxGeometry relative="1" as="geometry" />
        </mxCell>
        <mxCell id="a-Das0iFKzv1TxdE-6_U-69" style="edgeStyle=orthogonalEdgeStyle;rounded=0;orthogonalLoop=1;jettySize=auto;html=1;exitX=0.5;exitY=1;exitDx=0;exitDy=0;entryX=0.5;entryY=0;entryDx=0;entryDy=0;" edge="1" parent="1" source="a-Das0iFKzv1TxdE-6_U-71" target="a-Das0iFKzv1TxdE-6_U-73">
          <mxGeometry relative="1" as="geometry" />
        </mxCell>
        <mxCell id="a-Das0iFKzv1TxdE-6_U-70" style="edgeStyle=orthogonalEdgeStyle;rounded=0;orthogonalLoop=1;jettySize=auto;html=1;exitX=0.5;exitY=1;exitDx=0;exitDy=0;entryX=0.5;entryY=0;entryDx=0;entryDy=0;" edge="1" parent="1" source="a-Das0iFKzv1TxdE-6_U-71" target="a-Das0iFKzv1TxdE-6_U-74">
          <mxGeometry relative="1" as="geometry" />
        </mxCell>
        <mxCell id="a-Das0iFKzv1TxdE-6_U-71" value="1LegL" style="rounded=1;whiteSpace=wrap;html=1;fillColor=#f8cecc;strokeColor=#b85450;" vertex="1" parent="1">
          <mxGeometry x="175" y="430" width="120" height="20" as="geometry" />
        </mxCell>
        <mxCell id="a-Das0iFKzv1TxdE-6_U-72" value="1ArmL" style="rounded=1;whiteSpace=wrap;html=1;fillColor=#f8cecc;strokeColor=#b85450;" vertex="1" parent="1">
          <mxGeometry x="95" y="490" width="80" height="40" as="geometry" />
        </mxCell>
        <mxCell id="a-Das0iFKzv1TxdE-6_U-73" value="1ArmR" style="rounded=1;whiteSpace=wrap;html=1;fillColor=#f8cecc;strokeColor=#b85450;" vertex="1" parent="1">
          <mxGeometry x="295" y="490" width="80" height="40" as="geometry" />
        </mxCell>
        <mxCell id="a-Das0iFKzv1TxdE-6_U-74" value="NoArms" style="rounded=1;whiteSpace=wrap;html=1;fillColor=#f8cecc;strokeColor=#b85450;" vertex="1" parent="1">
          <mxGeometry x="195" y="490" width="80" height="40" as="geometry" />
        </mxCell>
        <mxCell id="a-Das0iFKzv1TxdE-6_U-76" value="1ArmL" style="rounded=1;whiteSpace=wrap;html=1;fillColor=#f8cecc;strokeColor=#b85450;" vertex="1" parent="1">
          <mxGeometry x="340" y="420" width="80" height="40" as="geometry" />
        </mxCell>
        <mxCell id="a-Das0iFKzv1TxdE-6_U-77" value="1ArmR" style="rounded=1;whiteSpace=wrap;html=1;fillColor=#f8cecc;strokeColor=#b85450;" vertex="1" parent="1">
          <mxGeometry x="450" y="420" width="80" height="40" as="geometry" />
        </mxCell>
        <mxCell id="a-Das0iFKzv1TxdE-6_U-80" style="edgeStyle=orthogonalEdgeStyle;rounded=0;orthogonalLoop=1;jettySize=auto;html=1;exitX=0.5;exitY=1;exitDx=0;exitDy=0;" edge="1" parent="1" source="a-Das0iFKzv1TxdE-6_U-83" target="a-Das0iFKzv1TxdE-6_U-84">
          <mxGeometry relative="1" as="geometry" />
        </mxCell>
        <mxCell id="a-Das0iFKzv1TxdE-6_U-81" style="edgeStyle=orthogonalEdgeStyle;rounded=0;orthogonalLoop=1;jettySize=auto;html=1;exitX=0.5;exitY=1;exitDx=0;exitDy=0;entryX=0.5;entryY=0;entryDx=0;entryDy=0;" edge="1" parent="1" source="a-Das0iFKzv1TxdE-6_U-83" target="a-Das0iFKzv1TxdE-6_U-85">
          <mxGeometry relative="1" as="geometry" />
        </mxCell>
        <mxCell id="a-Das0iFKzv1TxdE-6_U-82" style="edgeStyle=orthogonalEdgeStyle;rounded=0;orthogonalLoop=1;jettySize=auto;html=1;exitX=0.5;exitY=1;exitDx=0;exitDy=0;entryX=0.5;entryY=0;entryDx=0;entryDy=0;" edge="1" parent="1" source="a-Das0iFKzv1TxdE-6_U-83" target="a-Das0iFKzv1TxdE-6_U-86">
          <mxGeometry relative="1" as="geometry" />
        </mxCell>
        <mxCell id="a-Das0iFKzv1TxdE-6_U-83" value="1LegR" style="rounded=1;whiteSpace=wrap;html=1;fillColor=#f8cecc;strokeColor=#b85450;" vertex="1" parent="1">
          <mxGeometry x="575" y="430" width="120" height="20" as="geometry" />
        </mxCell>
        <mxCell id="a-Das0iFKzv1TxdE-6_U-84" value="1ArmL" style="rounded=1;whiteSpace=wrap;html=1;fillColor=#f8cecc;strokeColor=#b85450;" vertex="1" parent="1">
          <mxGeometry x="495" y="490" width="80" height="40" as="geometry" />
        </mxCell>
        <mxCell id="a-Das0iFKzv1TxdE-6_U-85" value="1ArmR" style="rounded=1;whiteSpace=wrap;html=1;fillColor=#f8cecc;strokeColor=#b85450;" vertex="1" parent="1">
          <mxGeometry x="695" y="490" width="80" height="40" as="geometry" />
        </mxCell>
        <mxCell id="a-Das0iFKzv1TxdE-6_U-86" value="NoArms" style="rounded=1;whiteSpace=wrap;html=1;fillColor=#f8cecc;strokeColor=#b85450;" vertex="1" parent="1">
          <mxGeometry x="595" y="490" width="80" height="40" as="geometry" />
        </mxCell>
        <mxCell id="a-Das0iFKzv1TxdE-6_U-115" style="edgeStyle=orthogonalEdgeStyle;rounded=0;orthogonalLoop=1;jettySize=auto;html=1;exitX=0.5;exitY=1;exitDx=0;exitDy=0;" edge="1" parent="1" source="a-Das0iFKzv1TxdE-6_U-118" target="a-Das0iFKzv1TxdE-6_U-119">
          <mxGeometry relative="1" as="geometry" />
        </mxCell>
        <mxCell id="a-Das0iFKzv1TxdE-6_U-116" style="edgeStyle=orthogonalEdgeStyle;rounded=0;orthogonalLoop=1;jettySize=auto;html=1;exitX=0.5;exitY=1;exitDx=0;exitDy=0;entryX=0.5;entryY=0;entryDx=0;entryDy=0;" edge="1" parent="1" source="a-Das0iFKzv1TxdE-6_U-118" target="a-Das0iFKzv1TxdE-6_U-120">
          <mxGeometry relative="1" as="geometry" />
        </mxCell>
        <mxCell id="a-Das0iFKzv1TxdE-6_U-118" value="Crutches_1LegL" style="rounded=1;whiteSpace=wrap;html=1;fillColor=#f8cecc;strokeColor=#b85450;" vertex="1" parent="1">
          <mxGeometry x="-60" y="600" width="120" height="20" as="geometry" />
        </mxCell>
        <mxCell id="a-Das0iFKzv1TxdE-6_U-119" value="1ArmL" style="rounded=1;whiteSpace=wrap;html=1;fillColor=#f8cecc;strokeColor=#b85450;" vertex="1" parent="1">
          <mxGeometry x="-140" y="660" width="80" height="40" as="geometry" />
        </mxCell>
        <mxCell id="a-Das0iFKzv1TxdE-6_U-120" value="1ArmR" style="rounded=1;whiteSpace=wrap;html=1;fillColor=#f8cecc;strokeColor=#b85450;" vertex="1" parent="1">
          <mxGeometry x="60" y="660" width="80" height="40" as="geometry" />
        </mxCell>
        <mxCell id="a-Das0iFKzv1TxdE-6_U-122" style="edgeStyle=orthogonalEdgeStyle;rounded=0;orthogonalLoop=1;jettySize=auto;html=1;exitX=0.5;exitY=1;exitDx=0;exitDy=0;" edge="1" parent="1" source="a-Das0iFKzv1TxdE-6_U-124" target="a-Das0iFKzv1TxdE-6_U-125">
          <mxGeometry relative="1" as="geometry" />
        </mxCell>
        <mxCell id="a-Das0iFKzv1TxdE-6_U-123" style="edgeStyle=orthogonalEdgeStyle;rounded=0;orthogonalLoop=1;jettySize=auto;html=1;exitX=0.5;exitY=1;exitDx=0;exitDy=0;entryX=0.5;entryY=0;entryDx=0;entryDy=0;" edge="1" parent="1" source="a-Das0iFKzv1TxdE-6_U-124" target="a-Das0iFKzv1TxdE-6_U-126">
          <mxGeometry relative="1" as="geometry" />
        </mxCell>
        <mxCell id="a-Das0iFKzv1TxdE-6_U-124" value="Crutches_1LegR" style="rounded=1;whiteSpace=wrap;html=1;fillColor=#f8cecc;strokeColor=#b85450;" vertex="1" parent="1">
          <mxGeometry x="790" y="600" width="120" height="20" as="geometry" />
        </mxCell>
        <mxCell id="a-Das0iFKzv1TxdE-6_U-125" value="1ArmL" style="rounded=1;whiteSpace=wrap;html=1;fillColor=#f8cecc;strokeColor=#b85450;" vertex="1" parent="1">
          <mxGeometry x="710" y="660" width="80" height="40" as="geometry" />
        </mxCell>
        <mxCell id="a-Das0iFKzv1TxdE-6_U-126" value="1ArmR" style="rounded=1;whiteSpace=wrap;html=1;fillColor=#f8cecc;strokeColor=#b85450;" vertex="1" parent="1">
          <mxGeometry x="910" y="660" width="80" height="40" as="geometry" />
        </mxCell>
        <mxCell id="a-Das0iFKzv1TxdE-6_U-144" value="" style="endArrow=none;dashed=1;html=1;rounded=0;labelBackgroundColor=default;strokeColor=#6c8ebf;fontFamily=Helvetica;fontSize=11;fontColor=default;shape=connector;fillColor=#dae8fc;movable=1;resizable=1;rotatable=1;deletable=1;editable=1;locked=0;connectable=1;" edge="1" parent="1" source="a-Das0iFKzv1TxdE-6_U-118" target="a-Das0iFKzv1TxdE-6_U-140">
          <mxGeometry width="50" height="50" relative="1" as="geometry">
            <mxPoint x="2" y="600" as="sourcePoint" />
            <mxPoint x="131" y="200" as="targetPoint" />
            <Array as="points" />
          </mxGeometry>
        </mxCell>
        <mxCell id="a-Das0iFKzv1TxdE-6_U-140" value="Shared anims" style="swimlane;fontStyle=0;childLayout=stackLayout;horizontal=1;startSize=30;horizontalStack=0;resizeParent=1;resizeParentMax=0;resizeLast=0;collapsible=1;marginBottom=0;whiteSpace=wrap;html=1;rounded=1;strokeColor=#9673a6;fontFamily=Helvetica;fontSize=11;fillColor=#e1d5e7;" vertex="1" collapsed="1" parent="1">
          <mxGeometry x="-5" y="380" width="60" height="30" as="geometry">
            <mxRectangle x="-5" y="380" width="140" height="90" as="alternateBounds" />
          </mxGeometry>
        </mxCell>
        <mxCell id="a-Das0iFKzv1TxdE-6_U-141" value="Movement w/ weapon" style="text;strokeColor=none;fillColor=none;align=left;verticalAlign=middle;spacingLeft=4;spacingRight=4;overflow=hidden;points=[[0,0.5],[1,0.5]];portConstraint=eastwest;rotatable=0;whiteSpace=wrap;html=1;fontSize=11;fontFamily=Helvetica;fontColor=default;" vertex="1" parent="a-Das0iFKzv1TxdE-6_U-140">
          <mxGeometry y="30" width="140" height="30" as="geometry" />
        </mxCell>
        <mxCell id="a-Das0iFKzv1TxdE-6_U-142" value="Sneak" style="text;strokeColor=none;fillColor=none;align=left;verticalAlign=middle;spacingLeft=4;spacingRight=4;overflow=hidden;points=[[0,0.5],[1,0.5]];portConstraint=eastwest;rotatable=0;whiteSpace=wrap;html=1;fontSize=11;fontFamily=Helvetica;fontColor=default;" vertex="1" parent="a-Das0iFKzv1TxdE-6_U-140">
          <mxGeometry y="60" width="140" height="30" as="geometry" />
        </mxCell>
        <mxCell id="a-Das0iFKzv1TxdE-6_U-148" value="" style="endArrow=none;dashed=1;html=1;rounded=0;labelBackgroundColor=default;strokeColor=#6c8ebf;fontFamily=Helvetica;fontSize=11;fontColor=default;shape=connector;fillColor=#dae8fc;" edge="1" parent="1" source="a-Das0iFKzv1TxdE-6_U-124" target="a-Das0iFKzv1TxdE-6_U-145">
          <mxGeometry width="50" height="50" relative="1" as="geometry">
            <mxPoint x="848" y="600" as="sourcePoint" />
            <mxPoint x="752" y="200" as="targetPoint" />
          </mxGeometry>
        </mxCell>
        <mxCell id="a-Das0iFKzv1TxdE-6_U-145" value="Shared anims" style="swimlane;fontStyle=0;childLayout=stackLayout;horizontal=1;startSize=30;horizontalStack=0;resizeParent=1;resizeParentMax=0;resizeLast=0;collapsible=1;marginBottom=0;whiteSpace=wrap;html=1;rounded=1;strokeColor=#9673a6;fontFamily=Helvetica;fontSize=11;fillColor=#e1d5e7;" vertex="1" collapsed="1" parent="1">
          <mxGeometry x="820" y="370" width="60" height="30" as="geometry">
            <mxRectangle x="820" y="370" width="140" height="90" as="alternateBounds" />
          </mxGeometry>
        </mxCell>
        <mxCell id="a-Das0iFKzv1TxdE-6_U-146" value="Movement w/ weapon" style="text;strokeColor=none;fillColor=none;align=left;verticalAlign=middle;spacingLeft=4;spacingRight=4;overflow=hidden;points=[[0,0.5],[1,0.5]];portConstraint=eastwest;rotatable=0;whiteSpace=wrap;html=1;fontSize=11;fontFamily=Helvetica;fontColor=default;" vertex="1" parent="a-Das0iFKzv1TxdE-6_U-145">
          <mxGeometry y="30" width="140" height="30" as="geometry" />
        </mxCell>
        <mxCell id="a-Das0iFKzv1TxdE-6_U-147" value="Sneak" style="text;strokeColor=none;fillColor=none;align=left;verticalAlign=middle;spacingLeft=4;spacingRight=4;overflow=hidden;points=[[0,0.5],[1,0.5]];portConstraint=eastwest;rotatable=0;whiteSpace=wrap;html=1;fontSize=11;fontFamily=Helvetica;fontColor=default;" vertex="1" parent="a-Das0iFKzv1TxdE-6_U-145">
          <mxGeometry y="60" width="140" height="30" as="geometry" />
        </mxCell>
        <mxCell id="a-Das0iFKzv1TxdE-6_U-151" value="ALL Anim Sets" style="ellipse;whiteSpace=wrap;html=1;rounded=1;strokeColor=#d79b00;fontFamily=Helvetica;fontSize=11;fillColor=#ffe6cc;" vertex="1" parent="1">
          <mxGeometry x="375" y="-40" width="120" height="80" as="geometry" />
        </mxCell>
        <mxCell id="a-Das0iFKzv1TxdE-6_U-153" style="edgeStyle=orthogonalEdgeStyle;shape=connector;rounded=0;orthogonalLoop=1;jettySize=auto;html=1;exitX=1;exitY=0.5;exitDx=0;exitDy=0;labelBackgroundColor=default;strokeColor=default;fontFamily=Helvetica;fontSize=11;fontColor=default;endArrow=classic;" edge="1" parent="1" source="a-Das0iFKzv1TxdE-6_U-152" target="a-Das0iFKzv1TxdE-6_U-151">
          <mxGeometry relative="1" as="geometry" />
        </mxCell>
        <mxCell id="a-Das0iFKzv1TxdE-6_U-152" value="Swim&lt;br&gt;[w/ all additional equipment bones scale 0]" style="rounded=1;whiteSpace=wrap;html=1;strokeColor=#b85450;fontFamily=Helvetica;fontSize=11;fontColor=default;fillColor=#f8cecc;" vertex="1" parent="1">
          <mxGeometry x="95" y="-170" width="120" height="60" as="geometry" />
        </mxCell>
        <mxCell id="a-Das0iFKzv1TxdE-6_U-157" value="1ARM: Shared anims" style="swimlane;fontStyle=0;childLayout=stackLayout;horizontal=1;startSize=30;horizontalStack=0;resizeParent=1;resizeParentMax=0;resizeLast=0;collapsible=1;marginBottom=0;whiteSpace=wrap;html=1;rounded=1;strokeColor=#9673a6;fontFamily=Helvetica;fontSize=11;fillColor=#e1d5e7;" vertex="1" collapsed="1" parent="1">
          <mxGeometry x="-280" y="80" width="140" height="30" as="geometry">
            <mxRectangle x="-280" y="80" width="140" height="90" as="alternateBounds" />
          </mxGeometry>
        </mxCell>
        <mxCell id="a-Das0iFKzv1TxdE-6_U-158" value="Attack [different weapons]" style="text;strokeColor=none;fillColor=none;align=left;verticalAlign=middle;spacingLeft=4;spacingRight=4;overflow=hidden;points=[[0,0.5],[1,0.5]];portConstraint=eastwest;rotatable=0;whiteSpace=wrap;html=1;fontSize=11;fontFamily=Helvetica;fontColor=default;" vertex="1" parent="a-Das0iFKzv1TxdE-6_U-157">
          <mxGeometry y="30" width="140" height="30" as="geometry" />
        </mxCell>
        <mxCell id="a-Das0iFKzv1TxdE-6_U-159" value="Torch" style="text;strokeColor=none;fillColor=none;align=left;verticalAlign=middle;spacingLeft=4;spacingRight=4;overflow=hidden;points=[[0,0.5],[1,0.5]];portConstraint=eastwest;rotatable=0;whiteSpace=wrap;html=1;fontSize=11;fontFamily=Helvetica;fontColor=default;" vertex="1" parent="a-Das0iFKzv1TxdE-6_U-157">
          <mxGeometry y="60" width="140" height="30" as="geometry" />
        </mxCell>
      </root>
    </mxGraphModel>
  </diagram>
</mxfile>
